…
# Verificar que sumatoria % x cada grupo de edad en cada distrito
datos_verificados <- datos_porcentaje %>%
    group_by(provincia_rh, distrito_rh, etapa_vida) %>%
    summarise(Total_porcentaje = sum(Porcentaje))
```

    ## `summarise()` has grouped output by 'provincia_rh', 'distrito_rh'. You can
    ## override using the `.groups` argument.

``` r
print(datos_verificados) #casi 100%
```

    ## # A tibble: 570 × 4
    ## # Groups:   provincia_rh, distrito_rh [114]
    ##    provincia_rh distrito_rh etapa_vida   Total_porcentaje
    ##    <chr>        <chr>       <chr>                   <dbl>
    ##  1 BARRANCA     BARRANCA    Adolescente              95.4
    ##  2 BARRANCA     BARRANCA    Adulto                   94.3
    ##  3 BARRANCA     BARRANCA    Adulto mayor             94.9
    ##  4 BARRANCA     BARRANCA    Joven                    95.3
    ##  5 BARRANCA     BARRANCA    Niños                    96  
    ##  6 BARRANCA     PARAMONGA   Adolescente              97.1
    ##  7 BARRANCA     PARAMONGA   Adulto                   95.5
    ##  8 BARRANCA     PARAMONGA   Adulto mayor             96.6
    ##  9 BARRANCA     PARAMONGA   Joven                    97  
    ## 10 BARRANCA     PARAMONGA   Niños                    95.8
    ## # ℹ 560 more rows
…
